{
  "file_generated_by": "FlutterFire CLI",
  "purpose": "FirebaseAppID & ProjectID for this Firebase app in this directory",
  "GOOGLE_APP_ID": "1:518261500956:ios:ca7fb867e1f22fd6a083d9",
  "FIREBASE_PROJECT_ID": "tb-fcm-notifications",
  "GCM_SENDER_ID": "518261500956"
}