{
  "project_info": {
    "project_number": "518261500956",
    "project_id": "tb-fcm-notifications",
    "storage_bucket": "tb-fcm-notifications.appspot.com"
  },
  "client": [
    {
      "client_info": {
        "mobilesdk_app_id": "1:518261500956:android:5a31c47e13a47ec0a083d9",
        "android_client_info": {
          "package_name": "com.example.fcm_notifications"
        }
      },
      "oauth_client": [
        {
          "client_id": "518261500956-qnoskfufp629vdc0f8cp28dcik8g4di9.apps.googleusercontent.com",
          "client_type": 3
        }
      ],
      "api_key": [
        {
          "current_key": "AIzaSyAK9Fd9_YzX2fzc1vrL26iuzjx7VrpUaOw"
        }
      ],
      "services": {
        "appinvite_service": {
          "other_platform_oauth_client": [
            {
              "client_id": "518261500956-qnoskfufp629vdc0f8cp28dcik8g4di9.apps.googleusercontent.com",
              "client_type": 3
            }
          ]
        }
      }
    }
  ],
  "configuration_version": "1"
}